{
    "stickers":
    [
        {
            "name": "angry",
            "file": "angry.gif",
            "duration": 2000
        },
        {
            "name": "blink",
            "file": "blink.gif",
            "duration": 2000
        },
        {
            "name": "pickEyeBrows",
            "file": "pick_eyebrows.gif",
            "duration": 2000
        },
        {
            "name": "pitiful",
            "file": "pitiful.gif",
            "duration": 2000
        },
        {
            "name": "rollEyes",
            "file": "roll_eyes.gif",
            "duration": 2000
        },
        {
            "name": "sad",
            "file": "sad.gif",
            "duration": 2000
        },
        {
            "name": "smile",
            "file": "smile.gif",
            "duration": 2000
        },
        {
            "name": "stuckTongue",
            "file": "stuck_tongue.gif",
            "duration": 2000
        },
        {
            "name": "surprise",
            "file": "surprise.gif",
            "duration": 2000
        },
        {
            "name": "pout",
            "file": "pout.gif",
            "duration": 2000
        },
        {
            "name": "shush",
            "file": "shush.gif",
            "duration": 2000
        },
        {
            "name": "think",
            "file": "think.gif",
            "duration": 2000
        }
    ]
}
